wk11 – Statistics for Psychologists
…
Step 2: Read in the data

mh <- read_csv("MillerHadenData.csv")

Rows: 25 Columns: 5
── Column specification ────────────────────────────────────────────────────────
Delimiter: ","
dbl (5): Participant, Abil, IQ, Home, TV

ℹ Use `spec()` to retrieve the full column specification for this data.
ℹ Specify the column types or set `show_col_types = FALSE` to quiet this message.

mh #just to have a quick look at the data

# A tibble: 25 × 5
   Participant  Abil    IQ  Home    TV
         <dbl> <dbl> <dbl> <dbl> <dbl>
 1           1    61   107   144   487
 2           2    56   109   123   608
 3           3    45    81   108   640
 4           4    66   100   155   493
 5           5    49    92   103   636
 6           6    62   105   161   407
 7           7    61    92   138   463
 8           8    55   101   119   717
 9           9    62   118   155   643
10          10    61    99   121   674
# ℹ 15 more rows
…
