122_wk13_labActivity2 – Statistics for Psychologists
…
Question 2a In the stars data frame, what do the numbers in the first row across the three columns refer to? ID = 3, Question = Q01 and Score = 1 shows us that participant 3 reported a score of 1 on question 1.

Step 3. Getting the data ready.

stars_means <- stars %>%
  group_by(ID) %>%
  summarise(mean_anxiety = mean(Score, na.rm = TRUE))
stars_means

# A tibble: 37 × 2
      ID mean_anxiety
   <dbl>        <dbl>
 1     3         1.06
 2     7         2.71
 3    12         2.24
 4    16         2.86
 5    23         1.71
 6    29         1.80
 7    39         1.96
 8    42         2.24
 9    43         2.69
10    44         1.92
# ℹ 27 more rows
…
