PSYC122-w19-how-to – Statistics for Psychologists
…
Q.23. Can you check what is going on when we center variables?

Q.23. Hint: You can see what is happening when you run this code by first calculating the mean for FACTOR3

mean(all.data$FACTOR3, na.rm = TRUE)

[1] 49.841

then looking at column values in the new FACTOR3_centered column, compared to the original FACTOR3 column:

all.data %>%
  select(FACTOR3_centered, FACTOR3) %>%
  print(n = 20)

# A tibble: 478 × 2
   FACTOR3_centered FACTOR3
              <dbl>   <dbl>
 1           10.2        60
 2           -3.84       46
 3            1.16       51
 4           -4.84       45
 5           13.2        63
 6            6.16       56
 7            3.16       53
 8          -15.8        34
 9            5.16       55
10           10.2        60
11            0.159      50
12            9.16       59
13           11.2        61
14           -9.84       40
15           -6.84       43
16            5.16       55
17            8.16       58
18           -7.84       42
19           -3.84       46
20           -2.84       47
# ℹ 458 more rows
…
