PSYC122-w19-workbook-answers – Statistics for Psychologists
…
Q.23. Can you check what is going on when we center variables?

Hint: You can see what is happening when you run this code by first calculating the mean for HLVA

mean(all.data$HLVA, na.rm = TRUE)

[1] 8.92887

then looking at column values in the new HLVA_centered column, compared to the original HLVA column:

all.data %>%
  select(HLVA_centered, HLVA) %>%
  print(n = 20)

# A tibble: 478 × 2
   HLVA_centered  HLVA
           <dbl> <dbl>
 1       -1.93       7
 2       -0.929      8
 3        2.07      11
 4        4.07      13
 5        0.0711     9
 6       -2.93       6
 7       -1.93       7
 8       -0.929      8
 9        1.07      10
10        4.07      13
11        1.07      10
12        2.07      11
13       -0.929      8
14        1.07      10
15        1.07      10
16        1.07      10
17        3.07      12
18        1.07      10
19       -1.93       7
20       -2.93       6
# ℹ 458 more rows
…
